<?xml version="1.0" encoding="UTF-8" standalone="no"?>
<!DOCTYPE svg PUBLIC "-//W3C//DTD SVG 1.1//EN"
 "http://www.w3.org/Graphics/SVG/1.1/DTD/svg11.dtd">
<!-- Generated by graphviz version 2.36.0 (20140111.2315)
 -->
<!-- Title: controllers_diagram Pages: 1 -->
<svg width="619pt" height="484pt"
 viewBox="0.00 0.00 618.71 484.00" xmlns="http://www.w3.org/2000/svg" xmlns:xlink="http://www.w3.org/1999/xlink">
<g id="graph0" class="graph" transform="scale(1 1) rotate(0) translate(4 480)">
<title>controllers_diagram</title>
<polygon fill="none" stroke="none" points="-4,4 -4,-480 614.714,-480 614.714,4 -4,4"/>
<!-- _diagram_info -->
<g id="node1" class="node"><title>_diagram_info</title>
<text text-anchor="start" x="140" y="-256.6" font-family="Times,serif" font-size="13.00">Controllers diagram</text>
<text text-anchor="start" x="140" y="-243.6" font-family="Times,serif" font-size="13.00">Date: Oct 20 2017 &#45; 15:30</text>
<text text-anchor="start" x="140" y="-230.6" font-family="Times,serif" font-size="13.00">Migration version: 20171016231252</text>
<text text-anchor="start" x="140" y="-217.6" font-family="Times,serif" font-size="13.00">Generated by RailRoady 1.5.3</text>
<text text-anchor="start" x="140" y="-204.6" font-family="Times,serif" font-size="13.00">http://railroady.prestonlee.com</text>
</g>
<!-- AccountsController -->
<g id="node2" class="node"><title>AccountsController</title>
<ellipse fill="none" stroke="black" cx="530.857" cy="-51" rx="79.7144" ry="18"/>
<text text-anchor="middle" x="530.857" y="-46.8" font-family="Times,serif" font-size="14.00">AccountsController</text>
</g>
<!-- AdjustmentsController -->
<g id="node3" class="node"><title>AdjustmentsController</title>
<ellipse fill="none" stroke="black" cx="245.166" cy="-381" rx="91.3326" ry="18"/>
<text text-anchor="middle" x="245.166" y="-376.8" font-family="Times,serif" font-size="14.00">AdjustmentsController</text>
</g>
<!-- AnnualPlanificationController -->
<g id="node4" class="node"><title>AnnualPlanificationController</title>
<ellipse fill="none" stroke="black" cx="480.196" cy="-216" rx="117.392" ry="18"/>
<text text-anchor="middle" x="480.196" y="-211.8" font-family="Times,serif" font-size="14.00">AnnualPlanificationController</text>
</g>
<!-- ApplicationController -->
<g id="node5" class="node"><title>ApplicationController</title>
<ellipse fill="none" stroke="black" cx="517.208" cy="-447" rx="88.417" ry="18"/>
<text text-anchor="middle" x="517.208" y="-442.8" font-family="Times,serif" font-size="14.00">ApplicationController</text>
</g>
<!-- BaseAdjustmentsController -->
<g id="node6" class="node"><title>BaseAdjustmentsController</title>
<ellipse fill="none" stroke="black" cx="471.357" cy="-381" rx="108.213" ry="18"/>
<text text-anchor="middle" x="471.357" y="-376.8" font-family="Times,serif" font-size="14.00">BaseAdjustmentsController</text>
</g>
<!-- BudgetsController -->
<g id="node7" class="node"><title>BudgetsController</title>
<ellipse fill="none" stroke="black" cx="141.444" cy="-84" rx="75.388" ry="18"/>
<text text-anchor="middle" x="141.444" y="-79.8" font-family="Times,serif" font-size="14.00">BudgetsController</text>
</g>
<!-- CostCentersController -->
<g id="node8" class="node"><title>CostCentersController</title>
<ellipse fill="none" stroke="black" cx="309.689" cy="-447" rx="89.8792" ry="18"/>
<text text-anchor="middle" x="309.689" y="-442.8" font-family="Times,serif" font-size="14.00">CostCentersController</text>
</g>
<!-- EstimatesController -->
<g id="node9" class="node"><title>EstimatesController</title>
<ellipse fill="none" stroke="black" cx="135.842" cy="-150" rx="80.6835" ry="18"/>
<text text-anchor="middle" x="135.842" y="-145.8" font-family="Times,serif" font-size="14.00">EstimatesController</text>
</g>
<!-- ItemsController -->
<g id="node10" class="node"><title>ItemsController</title>
<ellipse fill="none" stroke="black" cx="308.104" cy="-18" rx="66.208" ry="18"/>
<text text-anchor="middle" x="308.104" y="-13.8" font-family="Times,serif" font-size="14.00">ItemsController</text>
</g>
<!-- MonthPlanificationsController -->
<g id="node11" class="node"><title>MonthPlanificationsController</title>
<ellipse fill="none" stroke="black" cx="360.189" cy="-150" rx="118.378" ry="18"/>
<text text-anchor="middle" x="360.189" y="-145.8" font-family="Times,serif" font-size="14.00">MonthPlanificationsController</text>
</g>
<!-- PlanificationController -->
<g id="node12" class="node"><title>PlanificationController</title>
<ellipse fill="none" stroke="black" cx="333.162" cy="-84" rx="91.324" ry="18"/>
<text text-anchor="middle" x="333.162" y="-79.8" font-family="Times,serif" font-size="14.00">PlanificationController</text>
</g>
<!-- ReportsController -->
<g id="node13" class="node"><title>ReportsController</title>
<ellipse fill="none" stroke="black" cx="117.967" cy="-458" rx="73.9344" ry="18"/>
<text text-anchor="middle" x="117.967" y="-453.8" font-family="Times,serif" font-size="14.00">ReportsController</text>
</g>
<!-- TheoricAdjustmentsController -->
<g id="node14" class="node"><title>TheoricAdjustmentsController</title>
<ellipse fill="none" stroke="black" cx="415.664" cy="-315" rx="118.828" ry="18"/>
<text text-anchor="middle" x="415.664" y="-310.8" font-family="Times,serif" font-size="14.00">TheoricAdjustmentsController</text>
</g>
<!-- TransactionsController -->
<g id="node15" class="node"><title>TransactionsController</title>
<ellipse fill="none" stroke="black" cx="179.335" cy="-315" rx="91.1694" ry="18"/>
<text text-anchor="middle" x="179.335" y="-310.8" font-family="Times,serif" font-size="14.00">TransactionsController</text>
</g>
<!-- UsersController -->
<g id="node16" class="node"><title>UsersController</title>
<ellipse fill="none" stroke="black" cx="66.5962" cy="-392" rx="66.6925" ry="18"/>
<text text-anchor="middle" x="66.5962" y="-387.8" font-family="Times,serif" font-size="14.00">UsersController</text>
</g>
</g>
</svg>
