Código Item,Nombre Item,Enero,Febrero,Marzo,Abril,Mayo,Junio,Julio ,Agosto,Septiembre,Octubre,Noviembre,Diciembre
T0101000000,Sueldo Base,"  15,635,683,695 ","  15,635,683,695 ","  15,675,415,710 ","  15,617,586,899 ","  16,097,424,180 ","  16,117,995,833 ","  16,162,184,910 ","  16,201,420,434 ","  16,219,230,150 ","  16,230,440,483 ","  16,241,650,817 ","  16,256,445,245 "
T0101010000,Recuperación subsidios médicos,"- 418,322,162 ","- 418,322,162 ","- 418,322,162 ","- 418,322,162 ","- 418,322,162 ","- 418,322,162 ","- 418,322,162 ","- 418,322,162 ","- 418,322,162 ","- 418,322,162 ","- 418,322,162 ","- 418,322,162 "
T0102000000,Gratificación Legal,"  3,618,870,131 ","  3,618,870,131 ","  3,618,870,131 ","  3,618,870,131 ","  3,727,436,235 ","  3,727,436,235 ","  3,727,436,235 ","  3,727,436,235 ","  3,727,436,235 ","  3,727,436,235 ","  3,727,436,235 ","  3,727,436,235 "
T0103050000,Otras Remuneraciones Imponibles,"  23,758,046 ","  23,758,046 ","  23,758,046 ","  23,758,046 ","  24,470,787 ","  24,470,787 ","  24,470,787 ","  24,470,787 ","  24,470,787 ","  24,470,787 ","  24,470,787 ","  24,470,787 "
T0104020000,Aguinaldo Fiestas Patrias,  -   ,  -   ,  -   ,  -   ,  -   ,  -   ,  -   ,  -   ,"  1,763,130,906 ",  -   ,  -   ,  -   
T0104030000,Aguinaldo Navidad,  -   ,  -   ,  -   ,  -   ,  -   ,  -   ,  -   ,  -   ,  -   ,  -   ,  -   ,"  2,025,776,350 "
T0105030000,Bono Jefe turno,"  208,806 ","  208,806 ","  208,806 ","  208,806 ","  215,070 ","  215,070 ","  215,070 ","  215,070 ","  215,070 ","  215,070 ","  215,070 ","  215,070 "
T0106000000,Aporte Mutual,"  166,022,484 ","  166,022,484 ","  166,022,484 ","  166,022,484 ","  171,003,158 ","  171,003,158 ","  171,003,158 ","  171,003,158 ","  171,003,158 ","  171,003,158 ","  171,003,158 ","  171,003,158 "
T0106000200,SEGURO CESANTIA,"  344,839,535 ","  344,839,535 ","  344,839,535 ","  344,839,535 ","  355,184,721 ","  355,184,721 ","  355,184,721 ","  355,184,721 ","  355,184,721 ","  355,184,721 ","  355,184,721 ","  355,184,721 "
T0106000300,Aporte Seguro de Invalidez,"  247,302,390 ","  247,302,390 ","  247,302,390 ","  247,302,390 ","  254,721,462 ","  254,721,462 ","  254,721,462 ","  254,721,462 ","  254,721,462 ","  254,721,462 ","  254,721,462 ","  254,721,462 "
T0108000000,Fdo. Salud y Sobrevivencia,"  400,982,224 ","  400,982,224 ","  400,982,224 ","  400,982,224 ","  413,011,691 ","  413,011,691 ","  413,011,691 ","  413,011,691 ","  413,011,691 ","  413,011,691 ","  413,011,691 ","  413,011,691 "
T0108010000,Fondo Bienestar ,"  66,765,278 ","  66,765,278 ","  66,765,278 ","  66,765,278 ","  66,765,278 ","  66,765,278 ","  66,765,278 ","  66,765,278 ","  66,765,278 ","  66,765,278 ","  66,765,278 ","  66,765,278 "
T0108020000,Ayudas y Beneficios,"  5,012,500 ","  5,012,500 ","  5,012,500 ","  5,012,500 ","  5,012,500 ","  5,012,500 ","  5,012,500 ","  5,012,500 ","  5,012,500 ","  5,012,500 ","  5,012,500 ","  5,012,500 "
T0109010000,Anual por Carga,  -   ,  -   ,  -   ,"  1,082,934,007 ",  -   ,  -   ,  -   ,  -   ,  -   ,  -   ,  -   ,  -   
T0109010100,Jardín Infantil,"  94,425,424 ","  94,425,424 ","  94,425,424 ","  94,425,424 ","  94,425,424 ","  94,425,424 ","  94,425,424 ","  94,425,424 ","  94,425,424 ","  94,425,424 ","  94,425,424 ","  94,425,424 "
T0109030000,Otros  Bonos,"  75,211,624 ","  75,211,624 ","  75,211,624 ","  75,211,624 ","  225,211,624 ","  225,211,624 ","  75,211,624 ","  75,211,624 ","  75,211,624 ","  75,211,624 ","  75,211,624 ","  75,211,624 "
T0109060000,Cash Flow,"  4,071,566,219 ","  4,071,566,219 ","  4,083,130,693 ","  4,087,575,262 ","  4,089,532,727 ","  4,092,150,213 ","  4,099,973,920 ","  4,104,674,099 ","  4,106,465,608 ","  4,107,565,301 ","  4,108,664,995 ","  4,110,195,965 "
T0109070000,Bono Negociación Colectiva,"  908,007,393 ","  908,007,393 ","  908,007,393 ","  908,007,393 ","  908,007,393 ","  908,007,393 ","  980,174,059 ","  980,174,059 ","  980,174,059 ","  980,174,059 ","  980,174,059 ","  980,174,059 "
T0109080000,Escolaridad,  -   ,  -   ,"  1,071,720,507 ",  -   ,  -   ,  -   ,  -   ,  -   ,  -   ,  -   ,  -   ,  -   
T0109080100,Bono Invierno,  -   ,  -   ,  -   ,  -   ,  -   ,  -   ,"  429,504,098 ",  -   ,  -   ,  -   ,  -   ,  -   
T0109091000,Bono Casa Ejecutivos,"  22,019,597 ","  22,019,597 ","  22,019,597 ","  22,019,597 ","  22,680,185 ","  22,680,185 ","  22,680,185 ","  22,680,185 ","  22,680,185 ","  22,680,185 ","  22,680,185 ","  22,680,185 "
T0109100000,Comisiones,"  1,733,530,619 ","  1,733,530,619 ","  1,733,530,619 ","  1,733,530,619 ","  1,733,530,619 ","  1,733,530,619 ","  1,733,530,619 ","  1,733,530,619 ","  1,733,530,619 ","  1,733,530,619 ","  1,733,530,619 ","  1,733,652,073 "
T0109130000,Incentivos ,"  151,036,402 ","  151,036,402 ","  151,036,402 ","  151,036,402 ","  151,036,402 ","  151,036,402 ","  151,036,402 ","  151,036,402 ","  151,036,402 ","  151,036,402 ","  151,036,402 ","  153,680,929 "
T0110010000,Casino Central,"  183,941,810 ","  183,941,810 ","  183,941,810 ","  183,941,810 ","  189,460,065 ","  189,460,065 ","  189,460,065 ","  189,460,065 ","  189,460,065 ","  189,460,065 ","  195,143,866 ","  195,143,866 "
T0110010100,Casino Personal Sucursales,"  15,196,138 ","  15,196,138 ","  15,196,138 ","  15,196,138 ","  15,196,138 ","  15,196,138 ","  15,196,138 ","  15,196,138 ","  15,196,138 ","  15,196,138 ","  15,196,138 ","  15,196,138 "
T0110020000,Asig. Colacion,"  647,165,721 ","  647,165,721 ","  647,165,721 ","  647,165,721 ","  666,580,692 ","  666,580,692 ","  666,580,692 ","  666,580,692 ","  666,580,692 ","  666,580,692 ","  666,580,692 ","  666,580,692 "
T0110030000,Desayunos y Colación nocturna,"  12,015,693 ","  12,015,693 ","  12,015,693 ","  12,015,693 ","  12,015,693 ","  12,015,693 ","  12,015,693 ","  12,015,693 ","  12,015,693 ","  12,015,693 ","  12,015,693 ","  12,015,693 "
T0111000000,Movilización Legal,"  116,770,806 ","  116,770,806 ","  116,770,806 ","  116,770,806 ","  120,273,930 ","  120,273,930 ","  120,273,930 ","  120,273,930 ","  120,273,930 ","  120,273,930 ","  120,273,930 ","  120,273,930 "
T0112010000,Gratificación  Matrimonio,"  10,786,558 ","  10,786,558 ","  10,786,558 ","  10,786,558 ","  10,786,558 ","  10,786,558 ","  10,786,558 ","  10,786,558 ","  10,786,558 ","  10,786,558 ","  10,786,558 ","  10,786,558 "
T0112020000,Gratificación Nacimiento,"  34,176,393 ","  34,176,393 ","  34,176,393 ","  34,176,393 ","  34,176,393 ","  34,176,393 ","  34,176,393 ","  34,176,393 ","  34,176,393 ","  34,176,393 ","  34,176,393 ","  34,176,393 "
T0112030000,Fallecimiento,"  6,292,099 ","  6,292,099 ","  6,292,099 ","  6,292,099 ","  6,292,099 ","  6,292,099 ","  6,292,099 ","  6,292,099 ","  6,292,099 ","  6,292,099 ","  6,292,099 ","  6,292,099 "
T0113000000,Bono Vacaciones del Período,"  2,223,365,336 ","  1,279,138,897 ","  579,554,147 ","  453,539,873 ","  417,524,640 ","  464,155,575 ","  520,399,155 ","  306,726,933 ","  335,947,777 ","  281,440,415 ","  330,919,655 ","  639,873,392 "
T0114020000,Asignación Nocturna,"  3,020,674 ","  3,020,674 ","  3,020,674 ","  3,020,674 ","  3,111,294 ","  3,111,294 ","  3,111,294 ","  3,111,294 ","  3,111,294 ","  3,111,294 ","  3,111,294 ","  3,111,294 "
T0116000000,Horas Extraordinarias,"  267,148,739 ","  267,148,739 ","  267,148,739 ","  267,148,739 ","  275,163,201 ","  275,163,201 ","  275,163,201 ","  275,163,201 ","  275,163,201 ","  275,163,201 ","  275,163,201 ","  275,163,201 "
T0117020000,Honorarios Personal Reemplazante,"  5,946,984 ","  5,946,984 ","  5,946,984 ","  5,946,984 ","  5,946,984 ","  5,946,984 ","  5,946,984 ","  5,946,984 ","  5,946,984 ","  5,946,984 ","  5,946,984 ","  5,946,984 "
T0117030000,Personal Externo,"  10,112,885 ","  10,112,885 ","  10,112,885 ","  10,112,885 ","  10,112,885 ","  10,112,885 ","  10,112,885 ","  10,112,885 ","  10,112,885 ","  10,112,885 ","  10,112,885 ","  10,112,885 "
T0118000000,Remuneraciones Directores,"  111,732,500 ","  111,732,500 ","  111,732,500 ","  111,732,500 ","  115,084,475 ","  115,084,475 ","  115,084,475 ","  115,084,475 ","  115,084,475 ","  115,084,475 ","  115,084,475 ","  115,084,475 "
T0119000000,Desarrollo Comunicaciones,"  6,502,618 ","  13,005,236 ","  19,507,854 ","  52,020,944 ","  58,523,562 ","  585,235,621 ","  591,738,239 ","  598,240,857 ","  604,743,475 ","  637,256,565 ","  643,759,183 ","  650,261,801 "
T0201010000,Seguro  Vida Ejecutivos,"  17,166,273 ","  17,166,273 ","  17,166,273 ","  17,166,273 ","  17,166,273 ","  17,166,273 ","  17,166,273 ","  17,166,273 ","  17,166,273 ","  17,166,273 ","  17,166,273 ","  17,166,273 "
T0201020000,Seguro  Vida  Personal,"  30,297,349 ","  30,297,349 ","  30,297,349 ","  30,297,349 ","  30,297,349 ","  30,297,349 ","  30,297,349 ","  30,297,349 ","  30,297,349 ","  30,297,349 ","  30,297,349 ","  30,297,349 "
T0201020200,Vigilantes Seguro de Vida,"  1,578,884 ","  1,578,884 ","  1,578,884 ","  1,578,884 ","  1,578,884 ","  1,578,884 ","  1,578,884 ","  1,578,884 ","  1,578,884 ","  1,578,884 ","  1,578,884 ","  1,578,884 "
T0201040000,Seguro Cajeros por pérdidas,"  11,065,514 ","  11,065,514 ","  11,065,514 ","  11,065,514 ","  11,065,514 ","  11,065,514 ","  11,065,514 ","  11,065,514 ","  11,065,514 ","  11,065,514 ","  11,065,514 ","  11,065,514 "
T0201050000,Beneficio Vacuna,"  1,808,251 ","  1,808,251 ","  1,808,251 ","  1,808,251 ","  1,808,251 ","  1,808,251 ","  1,808,251 ","  1,808,251 ","  1,808,251 ","  1,808,251 ","  1,808,251 ","  1,808,251 "
T0202010000,Capacitacion,"  203,458,727 ","  203,458,727 ","  203,458,727 ","  203,458,727 ","  203,458,727 ","  203,458,727 ","  203,458,727 ","  203,458,727 ","  203,458,727 ","  203,458,727 ","  203,458,727 ","  203,458,727 "
T0202010040,Pasantías Internacionales,"  23,974,251 ","  23,974,251 ","  23,974,251 ","  23,974,251 ","  23,974,251 ","  23,974,251 ","  23,974,251 ","  23,974,251 ","  23,974,251 ","  23,974,251 ","  23,974,251 ","  23,974,251 "
T0202010050,Estudios Masivos,"  6,186,285 ","  6,186,285 ","  6,186,285 ","  6,186,285 ","  6,186,285 ","  6,186,285 ","  6,186,285 ","  6,186,285 ","  6,186,285 ","  6,186,285 ","  6,186,285 ","  6,186,285 "
T0202010060,Estudios y Postgrados,"  9,547,994 ","  9,547,994 ","  9,547,994 ","  9,547,994 ","  9,547,994 ","  9,547,994 ","  9,547,994 ","  9,547,994 ","  9,547,994 ","  9,547,994 ","  9,547,994 ","  9,547,994 "
T0202020000,Selección,"  34,235,710 ","  34,235,710 ","  34,235,710 ","  34,235,710 ","  34,235,710 ","  34,235,710 ","  34,235,710 ","  34,235,710 ","  34,235,710 ","  34,235,710 ","  34,235,710 ","  34,235,710 "
T0202030000,Becas de Estudios Hijos de funcionarios,"  22,333,333 ","  22,333,333 ","  22,333,333 ","  22,333,333 ","  22,333,333 ","  22,333,333 ","  22,333,333 ","  22,333,333 ","  22,333,333 ","  22,333,333 ","  22,333,333 ","  22,333,333 "
T0202040000,Becas de Estudios Empleados,"  27,916,667 ","  27,916,667 ","  27,916,667 ","  27,916,667 ","  27,916,667 ","  27,916,667 ","  27,916,667 ","  27,916,667 ","  27,916,667 ","  27,916,667 ","  27,916,667 ","  27,916,667 "
T0202050000,Premio Excelencia Académica Hijos,  -   ,  -   ,  -   ,"  317,725,909 ","  317,725,909 ",  -   ,  -   ,  -   ,  -   ,  -   ,  -   ,  -   
T0203000000,Uniformes,"  116,008,337 ","  97,720,397 ","  70,790,458 ","  100,249,855 ","  353,682,953 ","  167,610,018 ","  101,822,446 ","- 164,876,445 ","  96,260,139 ","  96,260,139 ","  96,260,139 ","  55,395,556 "
T0204000000,Alumnos en Práctica,"  180,671,505 ","  180,671,505 ",  -   ,  -   ,  -   ,  -   ,  -   ,  -   ,  -   ,  -   ,  -   ,"  38,418,678 "
T0205000000,sala cuna,"  157,969,363 ","  157,969,363 ","  157,969,363 ","  157,969,363 ","  157,969,363 ","  157,969,363 ","  157,969,363 ","  157,969,363 ","  157,969,363 ","  157,969,363 ","  157,969,363 ","  157,969,363 "
T0206000000,Aporte Agrupaciones Internas,"  68,041,945 ","  68,041,945 ","  68,041,945 ","  68,041,945 ","  68,041,945 ","  68,041,945 ","  68,041,945 ","  68,041,945 ","  68,041,945 ","  68,041,945 ","  68,041,945 ","  68,041,945 "
T0206010000,Actividades Culturales,"  19,860,160 ","  19,860,160 ","  19,860,160 ","  19,860,160 ","  19,860,160 ","  19,860,160 ","  19,860,160 ","  19,860,160 ","  19,860,160 ","  19,860,160 ","  19,860,160 ","  19,860,160 "
T0206020000,POE y Asistencia Social,"  26,234,144 ","  26,234,144 ","  26,234,144 ","  26,234,144 ","  26,234,144 ","  26,234,144 ","  26,234,144 ","  26,234,144 ","  26,234,144 ","  26,234,144 ","  26,234,144 ","  26,234,144 "
T0206200000,Comunicaciones Internas,"  31,589,259 ","  31,589,259 ","  31,589,259 ","  31,589,259 ","  31,589,259 ","  31,589,259 ","  31,589,259 ","  31,589,259 ","  31,589,259 ","  31,589,259 ","  31,589,259 ","  31,589,259 "
T0208010000,Fiesta Anual,"  43,557,995 ","  43,557,995 ","  43,557,995 ","  43,557,995 ","  43,557,995 ","  43,557,995 ","  43,557,995 ","  43,557,995 ","  43,557,995 ","  43,557,995 ","  43,557,995 ","  43,557,995 "
T0208011000,Fiesta Niños Navidad Stgo y Regiones,"  18,129,250 ","  18,129,250 ","  18,129,250 ","  18,129,250 ","  18,129,250 ","  18,129,250 ","  18,129,250 ","  18,129,250 ","  18,129,250 ","  18,129,250 ","  18,129,250 ","  18,129,250 "
T0208012000,Juguetes Navidad,"  24,575,422 ","  24,575,422 ","  24,575,422 ","  24,575,422 ","  24,575,422 ","  24,575,422 ","  24,575,422 ","  24,575,422 ","  24,575,422 ","  24,575,422 ","  24,575,422 ","  24,575,422 "
T0208013000,Caja Navidad,  -   ,  -   ,  -   ,  -   ,  -   ,  -   ,  -   ,  -   ,  -   ,  -   ,  -   ,"  520,506,132 "
T0209000000,Reembolso Pers. Internacional,"  16,445,473 ","  16,445,473 ","  16,445,473 ","  16,445,473 ","  16,445,473 ","  16,445,473 ","  16,445,473 ","  16,445,473 ","  16,445,473 ","  16,445,473 ","  16,445,473 ","  16,445,473 "
T0210010000,Colaciones Extraordinarias Servicios Centrales,"  7,929,346 ","  7,929,346 ","  7,929,346 ","  7,929,346 ","  7,929,346 ","  7,929,346 ","  7,929,346 ","  7,929,346 ","  7,929,346 ","  7,929,346 ","  7,929,346 ","  7,929,346 "
T0211010000,Flete/Traslado EE en Gral.,"  16,777,048 ","  16,777,048 ","  16,777,048 ","  16,777,048 ","  16,777,048 ","  16,777,048 ","  16,777,048 ","  16,777,048 ","  16,777,048 ","  16,777,048 ","  16,777,048 ","  16,777,048 "
T0211020000,Flete/Traslado EE Internacional,"  16,795,271 ","  16,795,271 ","  16,795,271 ","  16,795,271 ","  16,795,271 ","  16,795,271 ","  16,795,271 ","  16,795,271 ","  16,795,271 ","  16,795,271 ","  16,795,271 ","  16,795,271 "
T0211040000,Futuros Directivos,"  16,958,181 ","  16,958,181 ","  16,958,181 ","  16,958,181 ","  16,958,181 ","  16,958,181 ","  16,958,181 ","  16,958,181 ","  16,958,181 ","  16,958,181 ","  16,958,181 ","  16,958,181 "
T0211050000,Actividades Directivos,"  29,183,457 ","  29,183,457 ","  29,183,457 ","  29,183,457 ","  29,183,457 ","  29,183,457 ","  29,183,457 ","  29,183,457 ","  29,183,457 ","  29,183,457 ","  29,183,457 ","  29,183,457 "
T0211060000,Step,"  2,262,462 ","  2,262,462 ","  2,262,462 ","  2,262,462 ","  2,262,462 ","  2,262,462 ","  2,262,462 ","  2,262,462 ","  2,262,462 ","  2,262,462 ","  2,262,462 ","  2,262,462 "
T0212010000,Premios No monetarios,"  25,204,703 ","  25,204,703 ","  25,204,703 ","  25,204,703 ","  25,204,703 ","  25,204,703 ","  25,204,703 ","  25,204,703 ","  25,204,703 ","  25,204,703 ","  25,204,703 ","  25,204,703 "
T0212060000,Reconocimiento Social,"  9,365,014 ","  9,365,014 ","  9,365,014 ","  9,365,014 ","  9,365,014 ","  9,365,014 ","  9,365,014 ","  9,365,014 ","  9,365,014 ","  9,365,014 ","  9,365,014 ","  9,365,014 "
T0217010000,Estudios de Remuneraciones,"  1,611,806 ","  1,611,806 ","  1,611,806 ","  1,611,806 ","  1,611,806 ","  1,611,806 ","  1,611,806 ","  1,611,806 ","  1,611,806 ","  1,611,806 ","  1,611,806 ","  1,611,806 "
T0218010000,Asesor Laboral,"  20,581,247 ","  20,581,247 ","  20,581,247 ","  20,581,247 ","  20,581,247 ","  20,581,247 ","  20,581,247 ","  20,581,247 ","  20,581,247 ","  20,581,247 ","  20,581,247 ","  20,581,247 "
T0218060000,Honorarios/Asesorias,"  65,814,889 ","  65,814,889 ","  65,814,889 ","  65,814,889 ","  65,814,889 ","  65,814,889 ","  65,814,889 ","  65,814,889 ","  65,814,889 ","  65,814,889 ","  65,814,889 ","  65,814,889 "
T0220000000,Trasl. Invitaciones a Reunión,"  1,639,179 ","  1,639,179 ","  1,639,179 ","  1,639,179 ","  1,639,179 ","  1,639,179 ","  1,639,179 ","  1,639,179 ","  1,639,179 ","  1,639,179 ","  1,639,179 ","  1,639,179 "
T0220030000,Actividades Bienestar ,"  39,445,378 ","  39,445,378 ","  39,445,378 ","  39,445,378 ","  39,445,378 ","  39,445,378 ","  39,445,378 ","  39,445,378 ","  39,445,378 ","  39,445,378 ","  39,445,378 ","  39,445,378 "
T0220100000,Actividades de Convivencia,"  9,228,471 ","  9,228,471 ","  9,228,471 ","  9,228,471 ","  9,228,471 ","  9,228,471 ","  9,228,471 ","  9,228,471 ","  9,228,471 ","  9,228,471 ","  9,228,471 ","  9,228,471 "
T0220200000,Actividades Personal ,"  4,825,523 ","  4,825,523 ","  4,825,523 ","  4,825,523 ","  4,825,523 ","  4,825,523 ","  4,825,523 ","  4,825,523 ","  4,825,523 ","  4,825,523 ","  4,825,523 ","  4,825,523 "
T0230000000,Beneficio Ejec. Exámen,"  1,463,797 ","  1,463,797 ","  1,463,797 ","  1,463,797 ","  1,463,797 ","  1,463,797 ","  1,463,797 ","  1,463,797 ","  1,463,797 ","  1,463,797 ","  1,463,797 ","  1,463,797 "
T2000000000,DESAHUCIOS E INDEMNIZAC.,"  1,698,039,742 ","  1,698,039,742 ","  1,698,039,742 ","  1,698,039,742 ","  1,698,039,742 ","  1,698,039,742 ","  1,698,039,742 ","  1,698,039,742 ","  1,698,039,742 ","  1,698,039,742 ","  1,698,039,742 ","  1,698,039,742 "
T2000000001,FALLOS JUDICIALES RR HH,"  150,398,384 ","  150,398,384 ","  150,398,384 ","  150,398,384 ","  150,398,384 ","  150,398,384 ","  150,398,384 ","  150,398,384 ","  150,398,384 ","  150,398,384 ","  150,398,384 ","  150,398,384 "
T2000000002,Provisión. Vacaciones ,"- 4,098,253,436 ","- 4,481,943,808 ","  1,020,523,434 ","  647,879,143 ","  1,147,188,721 ","  891,075,543 ","  454,380,553 ","  1,204,554,073 ","  1,004,992,910 ","  1,235,024,831 ","  1,257,221,114 ","  1,074,607,502 "
T2000000017,GTOS CORRIENTES BENEFICIOS,"  90,714,826 ","  90,714,826 ","  90,714,826 ","  90,714,826 ","  90,714,826 ","  90,714,826 ","  90,714,826 ","  90,714,826 ","  90,714,826 ","  90,714,826 ","  90,714,826 ","  90,714,826 "